20180101 23:01:38.001|1000|101|98|25|20|102.9|TSTAT
20180101 23:03:03.008|3000|101|98|25|20|102.7|TSTAT
20180101 23:03:05.009|1000|101|98|25|20|101.2|TSTAT
20180101 23:01:38.001|2000|101|98|25|20|102.9|TSTAT
20180101 23:03:03.008|2000|101|98|25|20|102.7|TSTAT
20180101 23:03:05.009|2000|101|98|25|20|101.2|TSTAT
20180101 23:01:38.001|3000|101|98|25|20|102.9|TSTAT
20180101 23:03:03.008|3000|101|98|25|20|102.7|TSTAT
20180101 23:03:05.009|1000|101|98|25|20|101.2|TSTAT